Consensus clustering with overdispersion
…
# Tibble for simulated data
simulated_data = data.frame(
  DP = coverage,
  NV = read_counts_variant_alleles
) %>% 
  mutate(VAF = NV/DP) %>% 
  as_tibble()

print(simulated_data)
#> # A tibble: 1,000 x 3
#>       DP    NV   VAF
#>    <int> <dbl> <dbl>
#>  1    40    20 0.5  
#>  2    48    33 0.688
#>  3    41    17 0.415
#>  4    51    26 0.510
#>  5    40    25 0.625
#>  6    41    20 0.488
#>  7    33    16 0.485
#>  8    45    21 0.467
#>  9    51    25 0.490
#> 10    44    24 0.545
#> #  with 990 more rows
…
